Chapter 5 Results | NYC Trees Analysis
…
            NYC Trees Analysis

Chapter 5 Results

In this section we will explore deeper into the management of NYC tree ecosystem. We will discuss and identify potnetial problems through data visualizations in aspects such as tree diversity, tree health, tree size and the surrounding structure of trees.

Tree Diversity:

First of all, let’s take a look at the changing patterns of the 5 most popular tree species across NYC boroughs in 1995, 2005 and 2015, since they occupy a significant portion of the overall tree diversity system. The most prevalent tree species remain the same throughout the three periods, namely, Normway Maple, London Planetree, Pin Oak, Honeylocust, and Callery Pear.
We can see that from 1995 to 2015, the quantity of Norway Maple falls substantially from over 100000 to less than 37000. Looking at the distribution across boroughs, we see that Manhattan has very few Norway Maple and most of the reduction comes from Queens.
The amount and distribution of London Planetree remain relatively stable across all three periods as compared to other types.
Pin Oak, Honeylocust and Callery Pear all increase substantially in number from 1995 to 2015, indicating healthy growth and polination.
However, it should be noted that while Callery Pear boomed at the fastest rate from 1995 to 2005, it actually fell a little in quantity from 2005 to 2015. Therefore, more investigation is needed to identify possible growth-detering factors such as plant diseases.

## # A tibble: 276 x 2
##    Species                  n
##    <chr>                <int>
##  1 MAPLE, NORWAY       109321
##  2 LONDON PLANETREE     88040
##  3 OAK, PIN             36553
##  4 HONEYLOCUST          33727
##  5 PEAR, CALLERY        31293
##  6 LINDEN, LITTLE LEAF  26489
##  7 MAPLE, SILVER        22347
##  8 MAPLE, RED           17993
##  9 ASH, GREEN           17684
## 10 MAPLE, SUGAR         15355
## # … with 266 more rows
…
## # A tibble: 169 x 2
##    Species                 n
##    <chr>               <int>
##  1 LONDON PLANETREE    89529
##  2 MAPLE, NORWAY       74721
##  3 PEAR, CALLERY       63593
##  4 HONEYLOCUST         52191
##  5 OAK, PIN            43895
##  6 LINDEN, LITTLE LEAF 27664
##  7 ASH, GREEN          20624
##  8 MAPLE, RED          20254
##  9 MAPLE, SILVER       18666
## 10 UNKNOWN             18362
## # … with 159 more rows
…
## # A tibble: 133 x 2
##    Species               n
##    <chr>             <int>
##  1 LONDON PLANETREE  87014
##  2 HONEYLOCUST       64264
##  3 PEAR, CALLERY     58931
##  4 OAK, PIN          53185
##  5 MAPLE, NORWAY     34189
##  6 <NA>              31619
##  7 littleleaf linden 29742
##  8 cherry            29279
##  9 Japanese zelkova  29258
## 10 ginkgo            21024
## # … with 123 more rows
…
